module main

go 1.18

require cloud.google.com/go/datastore v1.8.0

require (
	cloud.google.com/go v0.102.1 // indirect
	cloud.google.com/go/compute v1.6.1 // indirect
	github.com/golang/groupcache v0.0.0-20210331224755-41bb18bfe9da // indirect
	github.com/golang/protobuf v1.5.2 // indirect
	github.com/google/go-cmp v0.5.8 // indirect
	github.com/googleapis/enterprise-certificate-proxy v0.0.0-20220520183353-fd19c99a87aa // indirect
	github.com/googleapis/gax-go/v2 v2.4.0 // indirect
	go.opencensus.io v0.23.0 // indirect
	golang.org/x/net v0.0.0-20220607020251-c690dde0001d // indirect
	golang.org/x/oauth2 v0.0.0-20220608161450-d0670ef3b1eb // indirect
	golang.org/x/sys v0.0.0-20220610221304-9f5ed59c137d // indirect
	golang.org/x/text v0.3.7 // indirect
	golang.org/x/xerrors v0.0.0-20220609144429-65e65417b02f // indirect
	google.golang.org/api v0.84.0 // indirect
	google.golang.org/appengine v1.6.7 // indirect
	google.golang.org/genproto v0.0.0-20220617124728-180714bec0ad // indirect
	google.golang.org/grpc v1.47.0 // indirect
	google.golang.org/protobuf v1.28.0 // indirect
)
